<?xml version="1.0" standalone="no"?>
<!DOCTYPE svg PUBLIC "-//W3C//DTD SVG 1.1//EN" "http://www.w3.org/Graphics/SVG/1.1/DTD/svg11.dtd">
<svg xmlns="http://www.w3.org/2000/svg">
<metadata>Copyright (C) 2016 by original authors @ fontello.com</metadata>
<defs>
<font id="fontello" horiz-adv-x="1000" >
<font-face font-family="fontello" font-weight="400" font-stretch="normal" units-per-em="1000" ascent="850" descent="-150" />
<missing-glyph horiz-adv-x="1000" />
<glyph glyph-name="user" unicode="&#xe800;" d="M714 69q0-60-35-104t-84-44h-476q-49 0-84 44t-35 104q0 48 5 90t17 85 33 73 52 50 76 19q73-72 174-72t175 72q42 0 75-19t52-50 33-73 18-85 4-90z m-143 495q0-88-62-151t-152-63-151 63-63 151 63 152 151 63 152-63 62-152z" horiz-adv-x="714.3" />

<glyph glyph-name="facebook" unicode="&#xe801;" d="M0-150l0 1000 1000 0 0-1000-1000 0z m471 469l92 0 0-352 132 0 0 352 129 0 6 127-135 0 0 94q0 31 12 43t41 13l80 0 2 117q-59 6-88 6l-23 0q-31 0-57-10-99-39-99-154l0-109-92 0 0-127z" horiz-adv-x="1000" />

<glyph glyph-name="facebook-circled" unicode="&#xe802;" d="M800 683q138-138 138-333 0-193-138-331t-331-138q-195 0-333 138-136 136-136 331 0 197 136 333 135 136 333 136 195 0 331-136z m-384-271q0 61 39 104t98 43l72 0 0-105-72 0q-13 0-22-9t-10-22l0-73 104 0 0-103-104 0 0-258q117 15 205 104 108 107 108 257 0 153-108 259t-257 106q-153 0-259-106t-106-259q0-150 106-257 89-89 206-104l0 258-103 0 0 103 103 0 0 62z" horiz-adv-x="938" />

<glyph glyph-name="ok" unicode="&#xe803;" d="M933 534q0-22-16-38l-404-404-76-76q-16-15-38-15t-38 15l-76 76-202 202q-15 16-15 38t15 38l76 76q16 16 38 16t38-16l164-165 366 367q16 16 38 16t38-16l76-76q16-15 16-38z" horiz-adv-x="1000" />

<glyph glyph-name="cancel" unicode="&#xe804;" d="M724 112q0-22-15-38l-76-76q-16-15-38-15t-38 15l-164 165-164-165q-16-15-38-15t-38 15l-76 76q-16 16-16 38t16 38l164 164-164 164q-16 16-16 38t16 38l76 76q16 16 38 16t38-16l164-164 164 164q16 16 38 16t38-16l76-76q15-15 15-38t-15-38l-164-164 164-164q15-15 15-38z" horiz-adv-x="785.7" />

<glyph glyph-name="home" unicode="&#xe805;" d="M786 296v-267q0-15-11-25t-25-11h-214v214h-143v-214h-214q-15 0-25 11t-11 25v267q0 1 0 2t0 2l321 264 321-264q1-1 1-4z m124 39l-34-41q-5-5-12-6h-2q-7 0-12 3l-386 322-386-322q-7-4-13-3-7 1-12 6l-35 41q-4 6-3 13t6 12l401 334q18 15 42 15t43-15l136-113v108q0 8 5 13t13 5h107q8 0 13-5t5-13v-227l122-102q6-4 6-12t-4-13z" horiz-adv-x="928.6" />

<glyph glyph-name="lock" unicode="&#xe806;" d="M179 421h285v108q0 59-42 101t-101 41-101-41-41-101v-108z m464-53v-322q0-22-16-37t-38-16h-535q-23 0-38 16t-16 37v322q0 22 16 38t38 15h17v108q0 102 74 176t176 74 177-74 73-176v-108h18q23 0 38-15t16-38z" horiz-adv-x="642.9" />

<glyph glyph-name="phone" unicode="&#xe807;" d="M786 158q0-15-6-39t-12-38q-11-28-68-60-52-28-103-28-15 0-30 2t-32 7-26 8-31 11-28 10q-54 20-97 47-71 44-148 120t-120 148q-27 43-46 97-2 5-10 28t-12 31-8 26-7 32-2 29q0 52 29 104 31 57 59 68 14 6 38 12t39 6q8 0 12-2 10-3 30-42 6-11 16-31t20-35 17-30q2-2 10-14t12-20 4-16q0-11-16-27t-35-31-34-30-16-25q0-5 3-13t4-11 8-14 7-10q42-77 97-132t131-97q1 0 10-6t14-8 11-5 13-2q10 0 25 16t30 34 31 35 28 16q7 0 15-4t20-12 14-10q14-8 30-17t36-20 30-17q39-19 42-29 2-4 2-12z" horiz-adv-x="785.7" />

<glyph glyph-name="basket" unicode="&#xe808;" d="M357-7q0-29-21-50t-50-22-50 22-22 50 22 50 50 21 50-21 21-50z m500 0q0-29-21-50t-50-22-50 22-22 50 22 50 50 21 50-21 21-50z m72 607v-286q0-13-10-23t-22-12l-583-68q7-34 7-40 0-8-13-35h513q15 0 26-11t10-25-10-25-26-11h-571q-14 0-25 11t-11 25q0 6 5 18t9 20 12 22 8 17l-98 459h-114q-15 0-25 10t-11 25 11 26 25 10h143q9 0 16-3t10-9 8-14 4-14 3-17 3-14h670q14 0 25-11t11-25z" horiz-adv-x="928.6" />

<glyph glyph-name="left-big" unicode="&#xe809;" d="M857 350v-71q0-30-18-51t-47-21h-393l164-164q21-20 21-50t-21-50l-42-43q-21-20-51-20-29 0-50 20l-364 364q-20 21-20 50 0 29 20 51l364 363q21 21 50 21 29 0 51-21l42-41q21-22 21-51t-21-51l-164-164h393q29 0 47-20t18-51z" horiz-adv-x="857.1" />

<glyph glyph-name="right-big" unicode="&#xe80a;" d="M821 314q0-30-20-50l-363-364q-22-20-51-20-29 0-50 20l-42 42q-22 21-22 51t22 51l163 163h-393q-29 0-47 21t-18 51v71q0 30 18 51t47 20h393l-163 165q-22 20-22 50t22 50l42 42q21 21 50 21 29 0 51-21l363-363q20-20 20-51z" horiz-adv-x="857.1" />

<glyph glyph-name="up-big" unicode="&#xe80b;" d="M899 308q0-28-21-50l-41-42q-22-21-51-21-30 0-50 21l-165 164v-393q0-29-20-47t-51-19h-71q-30 0-51 19t-21 47v393l-164-164q-20-21-50-21t-50 21l-42 42q-21 21-21 50 0 30 21 51l363 363q20 21 50 21 30 0 51-21l363-363q21-22 21-51z" horiz-adv-x="928.6" />

<glyph glyph-name="down-big" unicode="&#xe80c;" d="M899 386q0-30-21-50l-363-364q-22-21-51-21-29 0-50 21l-363 364q-21 20-21 50 0 29 21 51l41 41q22 21 51 21 29 0 50-21l164-164v393q0 29 21 50t51 22h71q29 0 50-22t21-50v-393l165 164q20 21 50 21 29 0 51-21l41-41q21-22 21-51z" horiz-adv-x="928.6" />

<glyph glyph-name="credit-card" unicode="&#xe80d;" d="M982 779q37 0 63-27t26-63v-678q0-37-26-63t-63-27h-893q-36 0-63 27t-26 63v678q0 37 26 63t63 27h893z m-893-72q-7 0-12-5t-6-13v-125h929v125q0 8-5 13t-13 5h-893z m893-714q7 0 13 5t5 13v339h-929v-339q0-7 6-13t12-5h893z m-839 71v72h143v-72h-143z m214 0v72h214v-72h-214z" horiz-adv-x="1071.4" />

<glyph glyph-name="spin4" unicode="&#xe834;" d="M498 850c-114 0-228-39-320-116l0 0c173 140 428 130 588-31 134-134 164-332 89-495-10-29-5-50 12-68 21-20 61-23 84 0 3 3 12 15 15 24 71 180 33 393-112 539-99 98-228 147-356 147z m-409-274c-14 0-29-5-39-16-3-3-13-15-15-24-71-180-34-393 112-539 185-185 479-195 676-31l0 0c-173-140-428-130-589 31-134 134-163 333-89 495 11 29 6 50-12 68-11 11-27 17-44 16z" horiz-adv-x="1001" />

<glyph glyph-name="comment-empty" unicode="&#xf0e5;" d="M500 636q-114 0-213-39t-157-105-59-142q0-62 40-119t113-98l48-28-15-53q-13-51-39-97 85 36 154 96l24 21 32-3q38-5 72-5 114 0 213 39t157 105 59 142-59 142-157 105-213 39z m500-286q0-97-67-179t-182-130-251-48q-39 0-81 4-110-97-257-135-27-8-63-12h-3q-8 0-15 6t-9 15v1q-2 2 0 6t1 6 2 5l4 5t4 5 4 5q4 5 17 19t20 22 17 22 18 28 15 33 15 42q-88 50-138 123t-51 157q0 97 67 179t182 130 251 48 251-48 182-130 67-179z" horiz-adv-x="1000" />

<glyph glyph-name="angle-right" unicode="&#xf105;" d="M332 314q0-7-5-12l-261-261q-5-5-12-5t-13 5l-28 28q-6 6-6 13t6 13l219 219-219 220q-6 5-6 12t6 13l28 28q5 6 13 6t12-6l261-260q5-5 5-13z" horiz-adv-x="357.1" />

<glyph glyph-name="circle-empty" unicode="&#xf10c;" d="M429 654q-83 0-153-41t-110-111-41-152 41-152 110-111 153-41 152 41 110 111 41 152-41 152-110 111-152 41z m428-304q0-117-57-215t-156-156-215-58-216 58-155 156-58 215 58 215 155 156 216 58 215-58 156-156 57-215z" horiz-adv-x="857.1" />

<glyph glyph-name="quote-left" unicode="&#xf10d;" d="M429 314v-214q0-45-32-76t-76-31h-214q-44 0-76 31t-31 76v393q0 58 23 111t61 91 91 61 111 23h35q15 0 26-11t10-25v-72q0-14-10-25t-26-10h-35q-59 0-101-42t-42-101v-18q0-22 16-38t37-16h125q45 0 76-31t32-76z m500 0v-214q0-45-32-76t-76-31h-214q-44 0-76 31t-31 76v393q0 58 23 111t61 91 91 61 111 23h35q15 0 26-11t10-25v-72q0-14-10-25t-26-10h-35q-59 0-101-42t-42-101v-18q0-22 16-38t37-16h125q45 0 76-31t32-76z" horiz-adv-x="928.6" />

<glyph glyph-name="quote-right" unicode="&#xf10e;" d="M429 671v-392q0-58-23-111t-61-91-91-61-111-23h-36q-14 0-25 11t-11 25v71q0 15 11 25t25 11h36q59 0 101 42t42 101v17q0 23-16 38t-38 16h-125q-44 0-76 31t-31 76v214q0 45 31 76t76 32h214q45 0 76-32t32-76z m500 0v-392q0-58-23-111t-61-91-91-61-111-23h-36q-14 0-25 11t-11 25v71q0 15 11 25t25 11h36q59 0 101 42t42 101v17q0 23-16 38t-38 16h-125q-44 0-76 31t-31 76v214q0 45 31 76t76 32h214q45 0 76-32t32-76z" horiz-adv-x="928.6" />

<glyph glyph-name="circle" unicode="&#xf111;" d="M857 350q0-117-57-215t-156-156-215-58-216 58-155 156-58 215 58 215 155 156 216 58 215-58 156-156 57-215z" horiz-adv-x="857.1" />

<glyph glyph-name="euro" unicode="&#xf153;" d="M545 121l19-89q2-7-1-13t-10-8l-3 0q-2-1-6-2t-9-3-12-3-14-3-16-2-19-3-21-2-21 0q-131 0-228 73t-133 196h-53q-7 0-13 5t-5 13v63q0 7 5 12t13 6h37q-1 31 0 58h-37q-8 0-13 5t-5 13v64q0 8 5 13t13 5h55q37 117 135 188t224 72q57 0 108-13 6-2 11-9 4-6 2-13l-24-89q-2-7-8-11t-13-1l-2 1q-3 0-7 1l-10 2t-12 2-15 2-16 1-16 1q-71 0-126-36t-84-98h261q9 0 14-7 6-7 4-15l-13-63q-3-15-18-15h-273q-1-20 0-58h257q8 0 13-7 5-7 4-15l-14-63q-1-6-6-10t-11-4h-216q27-65 84-104t127-38q10 0 20 1t19 2 16 2 14 3 10 3l7 1 3 2q7 2 14-2 7-3 9-11z" horiz-adv-x="571.4" />

<glyph glyph-name="dollar" unicode="&#xf155;" d="M546 189q0-86-56-147t-144-77v-97q0-8-5-13t-13-5h-75q-7 0-13 5t-5 13v97q-37 5-71 18t-57 25-41 26-26 21-10 10q-9 12-1 23l58 76q3 5 12 6 9 1 14-5l1-1q63-55 135-70 21-4 42-4 45 0 79 24t35 68q0 16-9 30t-18 23-33 21-37 18-45 18q-21 9-34 14t-34 15-35 17-32 20-29 24-25 27-20 32-11 37-5 44q0 77 55 135t142 75v100q0 7 5 13t13 5h75q8 0 13-5t5-13v-98q32-3 62-13t48-19 36-20 21-17 9-7q9-11 3-22l-46-81q-4-9-12-9-8-2-15 4-2 2-9 7t-21 14-33 18-42 15-47 6q-53 0-87-24t-33-62q0-14 4-27t17-23 22-18 31-18 34-15 39-15q30-11 45-17t43-20 42-24 34-28 30-35 18-43 7-52z" horiz-adv-x="571.4" />

<glyph glyph-name="rouble" unicode="&#xf158;" d="M582 535q0 56-36 90t-96 35h-178v-250h178q60 0 96 34t36 91z m132 0q0-108-70-176t-182-68h-190v-66h282q7 0 12-5t5-13v-71q0-8-5-13t-12-5h-282v-107q0-8-5-13t-13-5h-93q-8 0-13 5t-5 13v107h-125q-8 0-13 5t-5 13v71q0 8 5 13t13 5h125v66h-125q-8 0-13 5t-5 13v83q0 7 5 12t13 6h125v351q0 8 5 13t13 5h301q111 0 182-68t70-176z" horiz-adv-x="714.3" />

<glyph glyph-name="instagram" unicode="&#xf16d;" d="M571 350q0 59-41 101t-101 42-101-42-42-101 42-101 101-42 101 42 41 101z m77 0q0-91-64-156t-155-64-156 64-64 156 64 156 156 64 155-64 64-156z m61 229q0-21-15-36t-37-15-36 15-15 36 15 36 36 15 37-15 15-36z m-280 123q-4 0-43 0t-59 0-54-2-57-5-40-11q-28-11-49-32t-33-49q-6-16-10-40t-6-58-1-53 0-59 0-43 0-43 0-59 1-53 6-58 10-40q12-28 33-49t49-32q16-6 40-11t57-5 54-2 59 0 43 0 42 0 59 0 54 2 58 5 39 11q28 11 50 32t32 49q6 16 10 40t6 58 1 53 0 59 0 43 0 43 0 59-1 53-6 58-10 40q-11 28-32 49t-50 32q-16 6-39 11t-58 5-54 2-59 0-42 0z m428-352q0-128-3-177-5-116-69-180t-179-69q-50-3-177-3t-177 3q-116 6-180 69t-69 180q-3 49-3 177t3 177q5 116 69 180t180 69q49 3 177 3t177-3q116-6 179-69t69-180q3-49 3-177z" horiz-adv-x="857.1" />

<glyph glyph-name="vkontakte-1" unicode="&#xf189;" d="M1070 560q13-36-84-164-13-18-36-48-22-28-31-40t-17-27-7-24 8-19 18-24 32-30q2-1 2-2 79-73 107-123 2-3 4-7t4-15-1-19-14-15-33-7l-142-3q-14-2-32 3t-29 13l-11 6q-17 12-39 36t-38 43-34 33-32 8q-1 0-4-2t-10-8-12-16-9-29-4-44q0-8-2-15t-4-10l-2-3q-10-11-30-12h-64q-40-3-81 9t-74 29-57 37-40 32l-14 14q-5 5-15 17t-40 50-59 85-68 117-73 152q-4 9-4 15t2 9l2 3q9 11 32 11l153 1q7-1 13-3t9-5l3-2q9-6 13-18 11-28 26-57t23-46l9-16q16-34 31-58t27-38 23-22 19-8 15 3q1 1 3 3t7 12 7 26 5 46 0 69q-1 23-5 41t-7 26l-4 6q-14 19-47 24-8 2 3 14 8 10 21 17 29 14 133 13 46-1 75-7 12-3 19-8t12-13 5-18 2-25 0-31-2-40 0-46q0-6-1-23t0-27 2-22 6-22 13-14q4-1 9-2t15 6 21 19 29 38 38 60q33 58 60 125 2 6 5 10t6 6l3 2 2 1t8 2 11 0l160 1q22 3 36-1t17-10z" horiz-adv-x="1071.4" />

<glyph glyph-name="paper-plane" unicode="&#xf1d8;" d="M984 844q19-13 15-36l-142-857q-3-16-18-25-8-5-18-5-6 0-13 3l-253 104-135-165q-10-13-27-13-7 0-12 2-11 4-17 13t-7 21v195l482 590-596-516-221 91q-20 8-22 30-1 23 18 33l928 536q9 5 18 5 11 0 20-6z" horiz-adv-x="1000" />

<glyph glyph-name="paper-plane-empty" unicode="&#xf1d9;" d="M984 844q19-13 15-36l-142-857q-3-16-18-25-8-5-18-5-6 0-13 3l-294 120-166-182q-10-12-27-12-7 0-12 2-11 4-17 13t-6 21v252l-264 108q-20 8-22 30-2 22 18 33l928 536q20 12 38-1z m-190-837l123 739-800-462 187-76 482 356-267-444z" horiz-adv-x="1000" />

<glyph glyph-name="share" unicode="&#xf1e0;" d="M679 279q74 0 126-53t52-126-52-126-126-53-127 53-52 126q0 7 1 19l-201 100q-51-48-121-48-75 0-127 53t-52 126 52 126 127 53q70 0 121-48l201 100q-1 12-1 19 0 74 52 126t127 53 126-53 52-126-52-126-126-53q-71 0-122 48l-201-100q1-12 1-19t-1-19l201-100q51 48 122 48z" horiz-adv-x="857.1" />

<glyph glyph-name="whatsapp" unicode="&#xf232;" d="M550 307q7 0 54-25t50-30q1-2 1-8 0-18-9-42-9-22-40-37t-57-15q-32 0-106 35-55 25-95 66t-82 103q-41 60-40 108v5q2 50 41 88 14 12 29 12 4 0 10-1t11-1q11 0 15-3t8-16q5-11 19-49t14-41q0-12-19-33t-20-26q0-3 3-8 19-41 57-76 31-30 84-57 7-4 13-4 8 0 30 27t29 28z m-114-296q71 0 136 28t112 74 75 112 28 136-28 136-75 112-112 75-136 28-135-28-112-75-75-112-28-136q0-113 67-205l-44-130 135 43q88-58 192-58z m0 771q86 0 164-34t134-89 90-135 33-163-33-163-90-134-134-90-164-34q-108 0-203 53l-233-75 76 226q-60 99-60 217 0 86 33 163t90 135 134 89 163 34z" horiz-adv-x="857.1" />

<glyph glyph-name="shopping-basket" unicode="&#xf291;" d="M1071 421q30 0 51-20t21-51-21-50-51-21h-8l-64-370q-5-26-25-42t-45-17h-715q-25 0-45 17t-25 42l-64 370h-9q-29 0-50 21t-21 50 21 51 50 20h1000z m-800-446q14 1 24 13t9 26l-18 232q-1 14-13 24t-26 9-24-13-9-26l18-232q1-14 12-24t24-9h3z m229 36v232q0 14-11 25t-25 11-25-11-10-25v-232q0-15 10-25t25-11 25 11 11 25z m214 0v232q0 14-10 25t-25 11-25-11-11-25v-232q0-15 11-25t25-11 25 11 10 25z m197-3l18 232q1 15-9 26t-24 13-26-9-13-24l-18-232q-1-15 9-26t24-13h3q14 0 24 9t12 24z m-645 679l-52-230h-74l56 246q11 49 50 80t89 31h94q0 15 10 25t25 11h215q14 0 25-11t10-25h94q50 0 89-31t49-80l57-246h-74l-52 230q-6 25-25 40t-44 16h-94q0-15-10-25t-25-11h-215q-14 0-25 11t-10 25h-94q-25 0-44-16t-25-40z" horiz-adv-x="1142.9" />

<glyph glyph-name="telegram" unicode="&#xf2c6;" d="M664 121l82 386q5 25-6 36t-29 3l-482-185q-16-6-22-14t-2-15 18-11l124-38 286 180q12 8 18 3 4-3-3-8l-231-210-9-127q13 0 25 13l60 58 125-93q36-20 46 22z m336 229q0-102-40-194t-106-160-160-106-194-40-194 40-160 106-106 160-40 194 40 194 106 160 160 106 194 40 194-40 160-106 106-160 40-194z" horiz-adv-x="1000" />
</font>
</defs>
</svg>